<?xml version="1.0" standalone="no"?>
<!DOCTYPE svg PUBLIC "-//W3C//DTD SVG 20010904//EN"
 "http://www.w3.org/TR/2001/REC-SVG-20010904/DTD/svg10.dtd">
<svg version="1.0" xmlns="http://www.w3.org/2000/svg"
 width="150.000000pt" height="150.000000pt" viewBox="0 0 150.000000 150.000000"
 preserveAspectRatio="xMidYMid meet">
<metadata>
Created by potrace 1.11, written by Peter Selinger 2001-2013
</metadata>
<g transform="translate(0.000000,150.000000) scale(0.100000,-0.100000)"
fill="#000000" stroke="none">
<path d="M285 1159 c-105 -39 -193 -152 -242 -309 -21 -68 -27 -109 -29 -205
-2 -66 1 -140 6 -165 15 -71 43 -160 49 -160 3 0 20 8 36 18 57 35 165 64 249
68 110 5 207 -20 328 -84 9 -5 44 111 54 179 12 86 5 233 -17 317 -67 265
-252 410 -434 341z m199 -78 c93 -58 166 -197 191 -366 l6 -40 -34 37 c-97
105 -264 74 -317 -60 -15 -38 -9 -106 12 -149 l15 -30 -59 -7 c-32 -3 -90 -16
-128 -29 l-69 -23 -12 50 c-19 80 -18 220 3 316 57 263 234 399 392 301z m164
-523 c3 -30 -2 -43 -24 -65 l-27 -27 -19 24 c-19 23 -18 43 5 88 8 17 18 22
36 20 22 -3 26 -9 29 -40z"/>
<path d="M1030 1158 c-154 -60 -271 -280 -272 -513 -1 -129 8 -188 48 -313 3
-10 13 -8 42 7 170 86 367 91 524 11 33 -17 62 -30 63 -28 9 12 36 116 46 178
14 90 6 242 -15 325 -37 139 -131 277 -222 323 -62 32 -148 36 -214 10z m177
-65 c100 -47 185 -191 211 -357 10 -60 3 -71 -17 -32 -29 53 -137 87 -206 63
-105 -36 -159 -162 -111 -256 9 -16 16 -32 16 -34 0 -4 -83 -16 -122 -18 -4 0
-35 -11 -68 -24 l-60 -23 -11 36 c-17 54 -20 247 -5 317 37 178 127 307 235
339 53 15 89 12 138 -11z m189 -517 c12 -48 -15 -96 -52 -96 -32 0 -42 41 -21
86 21 43 63 48 73 10z"/>
</g>
</svg>
